Welcome to the tidyverse
…
## # A tibble: 1 x 3
##   avg_gdp max_gdp min_gdp
##     <dbl>   <dbl>   <dbl>
## 1   1855.   3970.   1073.

The summarize() function takes all rows in each columns and applies a function to these rows. mean(gdpPercap) takes the mean of all observations of gdpPercap for Sri Lanka and returns the average, summarized as the new variable avg_gdp.

Let’s go a bit further. Let’s say you want to know which countries have the highest average life expectancy:

gapminder %>%
  group_by(country) %>%
  summarize(mean_le = mean(lifeExp)) %>%
  arrange(desc(mean_le))

## # A tibble: 142 x 2
##    country     mean_le
##    <fct>         <dbl>
##  1 Iceland        76.5
##  2 Sweden         76.2
##  3 Norway         75.8
##  4 Netherlands    75.6
##  5 Switzerland    75.6
##  6 Canada         74.9
##  7 Japan          74.8
##  8 Australia      74.7
##  9 Denmark        74.4
## 10 France         74.3
## # ... with 132 more rows
…
